%YAML 1.1
%TAG !u! tag:unity3d.com,2011:
--- !u!114 &1000013340989480
MonoBehaviour:
  m_ObjectHideFlags: 0
  m_CorrespondingSourceObject: {fileID: 0}
  m_PrefabInstance: {fileID: 0}
  m_PrefabAsset: {fileID: 0}
  m_GameObject: {fileID: 8355993064396697189}
  m_Enabled: 1
  m_EditorHideFlags: 0
  m_Script: {fileID: 11500000, guid: df174ce2b104e4249a65cb24842db9f8, type: 3}
  m_Name: 
  m_EditorClassIdentifier: 
  Speed: 3
  Vision: 25
--- !u!1001 &7201413634361216362
PrefabInstance:
  m_ObjectHideFlags: 0
  serializedVersion: 2
  m_Modification:
    m_TransformParent: {fileID: 0}
    m_Modifications:
    - target: {fileID: 1154888394413662991, guid: 9fd54e99886dae24398ccac46465fc9f,
        type: 3}
      propertyPath: m_Name
      value: NPC
      objectReference: {fileID: 0}
    - target: {fileID: 1156093169322709029, guid: 9fd54e99886dae24398ccac46465fc9f,
        type: 3}
      propertyPath: m_LocalPosition.x
      value: -4.74
      objectReference: {fileID: 0}
    - target: {fileID: 1156093169322709029, guid: 9fd54e99886dae24398ccac46465fc9f,
        type: 3}
      propertyPath: m_LocalPosition.y
      value: 0
      objectReference: {fileID: 0}
    - target: {fileID: 1156093169322709029, guid: 9fd54e99886dae24398ccac46465fc9f,
        type: 3}
      propertyPath: m_LocalPosition.z
      value: 71.49
      objectReference: {fileID: 0}
    - target: {fileID: 1156093169322709029, guid: 9fd54e99886dae24398ccac46465fc9f,
        type: 3}
      propertyPath: m_LocalRotation.x
      value: 0
      objectReference: {fileID: 0}
    - target: {fileID: 1156093169322709029, guid: 9fd54e99886dae24398ccac46465fc9f,
        type: 3}
      propertyPath: m_LocalRotation.y
      value: 0
      objectReference: {fileID: 0}
    - target: {fileID: 1156093169322709029, guid: 9fd54e99886dae24398ccac46465fc9f,
        type: 3}
      propertyPath: m_LocalRotation.z
      value: 0
      objectReference: {fileID: 0}
    - target: {fileID: 1156093169322709029, guid: 9fd54e99886dae24398ccac46465fc9f,
        type: 3}
      propertyPath: m_LocalRotation.w
      value: 1
      objectReference: {fileID: 0}
    - target: {fileID: 1156093169322709029, guid: 9fd54e99886dae24398ccac46465fc9f,
        type: 3}
      propertyPath: m_RootOrder
      value: 0
      objectReference: {fileID: 0}
    - target: {fileID: 1156093169322709029, guid: 9fd54e99886dae24398ccac46465fc9f,
        type: 3}
      propertyPath: m_LocalEulerAnglesHint.x
      value: 0
      objectReference: {fileID: 0}
    - target: {fileID: 1156093169322709029, guid: 9fd54e99886dae24398ccac46465fc9f,
        type: 3}
      propertyPath: m_LocalEulerAnglesHint.y
      value: 0
      objectReference: {fileID: 0}
    - target: {fileID: 1156093169322709029, guid: 9fd54e99886dae24398ccac46465fc9f,
        type: 3}
      propertyPath: m_LocalEulerAnglesHint.z
      value: 0
      objectReference: {fileID: 0}
    m_RemovedComponents: []
  m_SourcePrefab: {fileID: 100100000, guid: 9fd54e99886dae24398ccac46465fc9f, type: 3}
--- !u!1 &8355993064396697189 stripped
GameObject:
  m_CorrespondingSourceObject: {fileID: 1154888394413662991, guid: 9fd54e99886dae24398ccac46465fc9f,
    type: 3}
  m_PrefabInstance: {fileID: 7201413634361216362}
  m_PrefabAsset: {fileID: 0}
